Geometry step: 0
Geometry step: 1
Geometry step: 2
Geometry step: 3
Geometry step: 4
Geometry step: 5
Geometry step: 6
Geometry step: 7
Geometry step: 8
Geometry step: 9
Geometry step: 10
Geometry step: 11
Geometry step: 12
Geometry step: 13
Geometry step: 14
Geometry step: 15
Geometry step: 16
Geometry step: 17
Geometry step: 18
Geometry step: 19
Geometry step: 20
Geometry step: 21
Geometry step: 22
Geometry step: 23
Geometry step: 24
Geometry step: 25
Geometry step: 26
Geometry step: 27
Geometry step: 28
Geometry step: 29
Geometry step: 30
Geometry step: 31
Geometry step: 32
Geometry step: 33
Geometry step: 34
Geometry step: 35
Geometry step: 36
Geometry step: 37
Geometry step: 38
Geometry step: 39
Geometry step: 40
Geometry step: 41
Geometry step: 42
Geometry step: 43
Geometry step: 44
Geometry step: 45
Geometry step: 46
Geometry step: 47
Geometry step: 48
Geometry step: 49
Geometry step: 50
Geometry step: 51
Geometry step: 52
Geometry step: 53
Geometry step: 54
Geometry step: 55
Geometry step: 56
Geometry step: 57
Geometry step: 58
Geometry step: 59
Geometry step: 60
Geometry step: 61
Geometry step: 62
Geometry step: 63
Geometry step: 64
Geometry step: 65
Geometry step: 66
Geometry step: 67
Geometry step: 68
Geometry step: 69
Geometry step: 70
Geometry step: 71
Geometry step: 72
Geometry step: 73
Geometry step: 74
Geometry step: 75
Geometry step: 76
Geometry step: 77
Geometry step: 78
Geometry step: 79
Geometry step: 80
Geometry step: 81
Geometry step: 82
Geometry step: 83
Geometry step: 84
Geometry step: 85
Geometry step: 86
Geometry step: 87
Geometry step: 88
Geometry step: 89
Geometry step: 90
Geometry step: 91
Geometry step: 92
Geometry step: 93
Geometry step: 94
Geometry step: 95
Geometry step: 96
Geometry step: 97
Geometry step: 98
Geometry step: 99
Geometry step: 100
Geometry step: 101
Geometry step: 102
Geometry step: 103
Geometry step: 104
Geometry step: 105
Geometry step: 106
Geometry step: 107
Geometry step: 108
Geometry step: 109
Geometry step: 110
Geometry step: 111
Geometry step: 112
Geometry step: 113
Geometry step: 114
Geometry step: 115
Geometry step: 116
Geometry step: 117
Geometry step: 118
Geometry step: 119
Geometry step: 120
Geometry step: 121
Geometry step: 122
Geometry step: 123
Geometry step: 124
Geometry step: 125
Geometry step: 126
Geometry step: 127
Geometry step: 128
Geometry step: 129
Geometry step: 130
Geometry step: 131
Geometry step: 132
Geometry step: 133
Geometry step: 134
Geometry step: 135
Geometry step: 136
Geometry step: 137
Geometry step: 138
Geometry step: 139
Geometry step: 140
Geometry step: 141
Geometry step: 142
Geometry step: 143
Geometry step: 144
Geometry step: 145
Geometry step: 146
Geometry step: 147
Geometry step: 148
Geometry step: 149
Geometry step: 150
Geometry step: 151
Geometry step: 152
Geometry step: 153
Geometry step: 154
Geometry step: 155
Geometry step: 156
Geometry step: 157
Geometry step: 158
Geometry step: 159
Geometry step: 160
Geometry step: 161
Geometry step: 162
Geometry step: 163
Geometry step: 164
Geometry step: 165
Geometry step: 166
Geometry step: 167
Geometry step: 168
Geometry step: 169
Geometry step: 170
Geometry step: 171
Geometry step: 172
Geometry step: 173
Geometry step: 174
Geometry step: 175
Geometry step: 176
Geometry step: 177
Geometry step: 178
Geometry step: 179
Geometry step: 180
Geometry step: 181
Geometry step: 182
Geometry step: 183
Geometry step: 184
Geometry step: 185
Geometry step: 186
Geometry step: 187
Geometry step: 188
Geometry step: 189
Geometry step: 190
Geometry step: 191
Geometry step: 192
Geometry step: 193
Geometry step: 194
Geometry step: 195
Geometry step: 196
Geometry step: 197
Geometry step: 198
Geometry step: 199
Geometry step: 200
Geometry step: 201
Geometry step: 202
Geometry step: 203
Geometry step: 204
Geometry step: 205
Geometry step: 206
Geometry step: 207
Geometry step: 208
Geometry step: 209
Geometry step: 210
Geometry step: 211
Geometry step: 212
Geometry step: 213
Geometry step: 214
Geometry step: 215
Geometry step: 216
Geometry step: 217
Geometry step: 218
Geometry step: 219
Geometry step: 220
Geometry step: 221
Geometry step: 222
Geometry step: 223
Geometry step: 224
Geometry step: 225
Geometry step: 226
Geometry step: 227
Geometry step: 228
Geometry step: 229
Geometry step: 230
Geometry step: 231
Geometry step: 232
Geometry step: 233
Geometry step: 234
Geometry step: 235
Geometry step: 236
Geometry step: 237
Geometry step: 238
Geometry step: 239
Geometry step: 240
Geometry step: 241
Geometry step: 242
Geometry step: 243
Geometry step: 244
Geometry step: 245
Geometry step: 246
Geometry step: 247
Geometry step: 248
Geometry step: 249
Geometry step: 250
Geometry step: 251
Geometry step: 252
Geometry step: 253
Geometry step: 254
Geometry step: 255
Geometry step: 256
Geometry step: 257
Geometry step: 258
Geometry step: 259
Geometry step: 260
Geometry step: 261
Geometry step: 262
Geometry step: 263
Geometry step: 264
Geometry step: 265
Geometry step: 266
Geometry step: 267
Geometry step: 268
Geometry step: 269
Geometry step: 270
Geometry step: 271
Geometry step: 272
Geometry step: 273
Geometry step: 274
Geometry step: 275
Geometry step: 276
Geometry step: 277
Geometry step: 278
Geometry step: 279
Geometry step: 280
Geometry step: 281
Geometry step: 282
Geometry step: 283
Geometry step: 284
Geometry step: 285
Geometry step: 286
Geometry step: 287
Geometry step: 288
Geometry step: 289
Geometry step: 290
Geometry step: 291
Geometry step: 292
Geometry step: 293
Geometry step: 294
Geometry step: 295
Geometry step: 296
Geometry step: 297
Geometry step: 298
Geometry step: 299
Geometry step: 300
Geometry step: 301
Geometry step: 302
Geometry step: 303
Geometry step: 304
Geometry step: 305
Geometry step: 306
Geometry step: 307
Geometry step: 308
Geometry step: 309
Geometry step: 310
Geometry step: 311
Geometry step: 312
Geometry step: 313
Geometry step: 314
Geometry step: 315
Geometry step: 316
Geometry step: 317
Geometry step: 318
Geometry step: 319
Geometry step: 320
Geometry step: 321
Geometry step: 322
Geometry step: 323
Geometry step: 324
Geometry step: 325
Geometry step: 326
Geometry step: 327
Geometry step: 328
Geometry step: 329
Geometry step: 330
Geometry step: 331
Geometry step: 332
Geometry step: 333
Geometry step: 334
Geometry step: 335
Geometry step: 336
Geometry step: 337
Geometry step: 338
Geometry step: 339
Geometry step: 340
Geometry step: 341
Geometry step: 342
Geometry step: 343
Geometry step: 344
Geometry step: 345
Geometry step: 346
Geometry step: 347
Geometry step: 348
Geometry step: 349
Geometry step: 350
Geometry step: 351
Geometry step: 352
Geometry step: 353
Geometry step: 354
Geometry step: 355
Geometry step: 356
Geometry step: 357
Geometry step: 358
Geometry step: 359
Geometry step: 360
Geometry step: 361
Geometry step: 362
Geometry step: 363
Geometry step: 364
Geometry step: 365
Geometry step: 366
Geometry step: 367
Geometry step: 368
Geometry step: 369
Geometry step: 370
Geometry step: 371
Geometry step: 372
Geometry step: 373
Geometry step: 374
Geometry step: 375
Geometry step: 376
Geometry step: 377
Geometry step: 378
Geometry step: 379
Geometry step: 380
Geometry step: 381
Geometry step: 382
Geometry step: 383
Geometry step: 384
Geometry step: 385
Geometry step: 386
Geometry step: 387
Geometry step: 388
Geometry step: 389
Geometry step: 390
Geometry step: 391
Geometry step: 392
Geometry step: 393
Geometry step: 394
Geometry step: 395
Geometry step: 396
Geometry step: 397
Geometry step: 398
Geometry step: 399
Geometry step: 400
Geometry step: 401
Geometry step: 402
Geometry step: 403
Geometry step: 404
Geometry step: 405
Geometry step: 406
Geometry step: 407
Geometry step: 408
Geometry step: 409
Geometry step: 410
Geometry step: 411
Geometry step: 412
Geometry step: 413
Geometry step: 414
Geometry step: 415
Geometry step: 416
Geometry step: 417
Geometry step: 418
Geometry step: 419
Geometry step: 420
Geometry step: 421
Geometry step: 422
Geometry step: 423
Geometry step: 424
Geometry step: 425
Geometry step: 426
Geometry step: 427
Geometry step: 428
Geometry step: 429
Geometry step: 430
Geometry step: 431
Geometry step: 432
Geometry step: 433
Geometry step: 434
Geometry step: 435
Geometry step: 436
Geometry step: 437
Geometry step: 438
Geometry step: 439
Geometry step: 440
Geometry step: 441
Geometry step: 442
Geometry step: 443
Geometry step: 444
Geometry step: 445
Geometry step: 446
Geometry step: 447
Geometry step: 448
Geometry step: 449
Geometry step: 450
Geometry step: 451
Geometry step: 452
Geometry step: 453
Geometry step: 454
Geometry step: 455
Geometry step: 456
Geometry step: 457
Geometry step: 458
Geometry step: 459
Geometry step: 460
Geometry step: 461
Geometry step: 462
Geometry step: 463
Geometry step: 464
Geometry step: 465
Geometry step: 466
Geometry step: 467
Geometry step: 468
Geometry step: 469
Geometry step: 470
Geometry step: 471
Geometry step: 472
Geometry step: 473
Geometry step: 474
Geometry step: 475
Geometry step: 476
Geometry step: 477
Geometry step: 478
Geometry step: 479
Geometry step: 480
Geometry step: 481
Geometry step: 482
Geometry step: 483
Geometry step: 484
Geometry step: 485
Geometry step: 486
Geometry step: 487
Geometry step: 488
Geometry step: 489
Geometry step: 490
Geometry step: 491
Geometry step: 492
Geometry step: 493
Geometry step: 494
Geometry step: 495
Geometry step: 496
Geometry step: 497
Geometry step: 498
Geometry step: 499
Geometry step: 500
Geometry step: 501
Geometry step: 502
Geometry step: 503
Geometry step: 504
Geometry step: 505
Geometry step: 506
Geometry step: 507
Geometry step: 508
Geometry step: 509
Geometry step: 510
Geometry step: 511
Geometry step: 512
Geometry step: 513
Geometry step: 514
Geometry step: 515
Geometry step: 516
Geometry step: 517
Geometry step: 518
Geometry step: 519
Geometry step: 520
Geometry step: 521
Geometry step: 522
Geometry step: 523
Geometry step: 524
Geometry step: 525
Geometry step: 526
Geometry step: 527
Geometry step: 528
Geometry step: 529
Geometry step: 530
Geometry step: 531
Geometry step: 532
Geometry step: 533
Geometry step: 534
Geometry step: 535
Geometry step: 536
Geometry step: 537
Geometry step: 538
Geometry step: 539
Geometry step: 540
Geometry step: 541
Geometry step: 542
Geometry step: 543
Geometry step: 544
Geometry step: 545
Geometry step: 546
Geometry step: 547
Geometry step: 548
Geometry step: 549
Geometry step: 550
Geometry step: 551
Geometry step: 552
Geometry step: 553
Geometry step: 554
Geometry step: 555
Geometry step: 556
Geometry step: 557
Geometry step: 558
Geometry step: 559
Geometry step: 560
Geometry step: 561
Geometry step: 562
Geometry step: 563
Geometry step: 564
Geometry step: 565
Geometry step: 566
Geometry step: 567
Geometry step: 568
Geometry step: 569
Geometry step: 570
Geometry step: 571
Geometry step: 572
Geometry step: 573
Geometry step: 574
Geometry step: 575
Geometry step: 576
Geometry step: 577
Geometry step: 578
Geometry step: 579
Geometry step: 580
Geometry step: 581
Geometry step: 582
Geometry step: 583
Geometry step: 584
Geometry step: 585
Geometry step: 586
Geometry step: 587
Geometry step: 588
Geometry step: 589
Geometry step: 590
Geometry step: 591
Geometry step: 592
Geometry step: 593
Geometry step: 594
Geometry step: 595
Geometry step: 596
Geometry step: 597
Geometry step: 598
Geometry step: 599
Geometry step: 600
Geometry step: 601
Geometry step: 602
Geometry step: 603
Geometry step: 604
Geometry step: 605
Geometry step: 606
Geometry step: 607
Geometry step: 608
Geometry step: 609
Geometry step: 610
Geometry step: 611
Geometry step: 612
Geometry step: 613
Geometry step: 614
Geometry step: 615
Geometry step: 616
Geometry step: 617
Geometry step: 618
Geometry step: 619
Geometry step: 620
Geometry step: 621
Geometry step: 622
Geometry step: 623
Geometry step: 624
Geometry step: 625
Geometry step: 626
Geometry step: 627
Geometry step: 628
Geometry step: 629
Geometry step: 630
Geometry step: 631
Geometry step: 632
Geometry step: 633
Geometry step: 634
Geometry step: 635
Geometry step: 636
Geometry step: 637
Geometry step: 638
Geometry step: 639
Geometry step: 640
Geometry step: 641
Geometry step: 642
Geometry step: 643
Geometry step: 644
Geometry step: 645
Geometry step: 646
Geometry step: 647
Geometry step: 648
Geometry step: 649
Geometry step: 650
Geometry step: 651
Geometry step: 652
Geometry step: 653
Geometry step: 654
Geometry step: 655
Geometry step: 656
Geometry step: 657
Geometry step: 658
Geometry step: 659
Geometry step: 660
Geometry step: 661
Geometry step: 662
Geometry step: 663
Geometry step: 664
Geometry step: 665
Geometry step: 666
Geometry step: 667
Geometry step: 668
Geometry step: 669
Geometry step: 670
Geometry step: 671
Geometry step: 672
Geometry step: 673
Geometry step: 674
Geometry step: 675
Geometry step: 676
Geometry step: 677
Geometry step: 678
Geometry step: 679
Geometry step: 680
Geometry step: 681
Geometry step: 682
Geometry step: 683
Geometry step: 684
Geometry step: 685
Geometry step: 686
Geometry step: 687
Geometry step: 688
Geometry step: 689
Geometry step: 690
Geometry step: 691
Geometry step: 692
Geometry step: 693
Geometry step: 694
Geometry step: 695
Geometry step: 696
Geometry step: 697
Geometry step: 698
Geometry step: 699
Geometry step: 700
Geometry step: 701
Geometry step: 702
Geometry step: 703
Geometry step: 704
Geometry step: 705
Geometry step: 706
Geometry step: 707
Geometry step: 708
Geometry step: 709
Geometry step: 710
Geometry step: 711
Geometry step: 712
Geometry step: 713
Geometry step: 714
Geometry step: 715
Geometry step: 716
Geometry step: 717
Geometry step: 718
Geometry step: 719
Geometry step: 720
Geometry step: 721
Geometry step: 722
Geometry step: 723
Geometry step: 724
Geometry step: 725
Geometry step: 726
Geometry step: 727
Geometry step: 728
Geometry step: 729
Geometry step: 730
Geometry step: 731
Geometry step: 732
Geometry step: 733
Geometry step: 734
Geometry step: 735
Geometry step: 736
Geometry step: 737
Geometry step: 738
Geometry step: 739
Geometry step: 740
Geometry step: 741
Geometry step: 742
Geometry step: 743
Geometry step: 744
Geometry step: 745
Geometry step: 746
Geometry step: 747
Geometry step: 748
Geometry step: 749
Geometry step: 750
Geometry step: 751
Geometry step: 752
Geometry step: 753
Geometry step: 754
Geometry step: 755
Geometry step: 756
Geometry step: 757
Geometry step: 758
Geometry step: 759
Geometry step: 760
Geometry step: 761
Geometry step: 762
Geometry step: 763
Geometry step: 764
Geometry step: 765
Geometry step: 766
Geometry step: 767
Geometry step: 768
Geometry step: 769
Geometry step: 770
Geometry step: 771
Geometry step: 772
Geometry step: 773
Geometry step: 774
Geometry step: 775
Geometry step: 776
Geometry step: 777
Geometry step: 778
Geometry step: 779
Geometry step: 780
Geometry step: 781
Geometry step: 782
Geometry step: 783
Geometry step: 784
Geometry step: 785
Geometry step: 786
Geometry step: 787
Geometry step: 788
Geometry step: 789
Geometry step: 790
Geometry step: 791
Geometry step: 792
Geometry step: 793
Geometry step: 794
Geometry step: 795
Geometry step: 796
Geometry step: 797
Geometry step: 798
Geometry step: 799
Geometry step: 800
Geometry step: 801
Geometry step: 802
Geometry step: 803
Geometry step: 804
Geometry step: 805
Geometry step: 806
Geometry step: 807
Geometry step: 808
Geometry step: 809
Geometry step: 810
Geometry step: 811
Geometry step: 812
Geometry step: 813
Geometry step: 814
Geometry step: 815
Geometry step: 816
Geometry step: 817
Geometry step: 818
Geometry step: 819
Geometry step: 820
Geometry step: 821
Geometry step: 822
Geometry step: 823
Geometry step: 824
Geometry step: 825
Geometry step: 826
Geometry step: 827
Geometry step: 828
Geometry step: 829
Geometry step: 830
Geometry step: 831
Geometry step: 832
Geometry step: 833
Geometry step: 834
Geometry step: 835
Geometry step: 836
Geometry step: 837
Geometry step: 838
Geometry step: 839
Geometry step: 840
Geometry step: 841
Geometry step: 842
Geometry step: 843
Geometry step: 844
Geometry step: 845
Geometry step: 846
Geometry step: 847
Geometry step: 848
Geometry step: 849
Geometry step: 850
Geometry step: 851
Geometry step: 852
Geometry step: 853
Geometry step: 854
Geometry step: 855
Geometry step: 856
Geometry step: 857
Geometry step: 858
Geometry step: 859
Geometry step: 860
Geometry step: 861
Geometry step: 862
Geometry step: 863
Geometry step: 864
Geometry step: 865
Geometry step: 866
Geometry step: 867
Geometry step: 868
Geometry step: 869
Geometry step: 870
Geometry step: 871
Geometry step: 872
Geometry step: 873
Geometry step: 874
Geometry step: 875
Geometry step: 876
Geometry step: 877
Geometry step: 878
Geometry step: 879
Geometry step: 880
Geometry step: 881
Geometry step: 882
Geometry step: 883
Geometry step: 884
Geometry step: 885
Geometry step: 886
Geometry step: 887
Geometry step: 888
Geometry step: 889
Geometry step: 890
Geometry step: 891
Geometry step: 892
Geometry step: 893
Geometry step: 894
Geometry step: 895
Geometry step: 896
Geometry step: 897
Geometry step: 898
Geometry step: 899
Geometry step: 900
Geometry step: 901
Geometry step: 902
Geometry step: 903
Geometry step: 904
Geometry step: 905
Geometry step: 906
Geometry step: 907
Geometry step: 908
Geometry step: 909
Geometry step: 910
Geometry step: 911
Geometry step: 912
Geometry step: 913
Geometry step: 914
Geometry step: 915
Geometry step: 916
Geometry step: 917
Geometry step: 918
Geometry step: 919
Geometry step: 920
Geometry step: 921
Geometry step: 922
Geometry step: 923
Geometry step: 924
Geometry step: 925
Geometry step: 926
Geometry step: 927
Geometry step: 928
Geometry step: 929
Geometry step: 930
Geometry step: 931
Geometry step: 932
Geometry step: 933
Geometry step: 934
Geometry step: 935
Geometry step: 936
Geometry step: 937
Geometry step: 938
Geometry step: 939
Geometry step: 940
Geometry step: 941
Geometry step: 942
Geometry step: 943
Geometry step: 944
Geometry step: 945
Geometry step: 946
Geometry step: 947
Geometry step: 948
Geometry step: 949
Geometry step: 950
Geometry step: 951
Geometry step: 952
Geometry step: 953
Geometry step: 954
Geometry step: 955
Geometry step: 956
Geometry step: 957
Geometry step: 958
Geometry step: 959
Geometry step: 960
Geometry step: 961
Geometry step: 962
Geometry step: 963
Geometry step: 964
Geometry step: 965
Geometry step: 966
Geometry step: 967
Geometry step: 968
Geometry step: 969
Geometry step: 970
Geometry step: 971
Geometry step: 972
Geometry step: 973
Geometry step: 974
Geometry step: 975
Geometry step: 976
Geometry step: 977
Geometry step: 978
Geometry step: 979
Geometry step: 980
Geometry step: 981
Geometry step: 982
Geometry step: 983
Geometry step: 984
Geometry step: 985
Geometry step: 986
Geometry step: 987
Geometry step: 988
Geometry step: 989
Geometry step: 990
Geometry step: 991
Geometry step: 992
Geometry step: 993
Geometry step: 994
Geometry step: 995
Geometry step: 996
Geometry step: 997
Geometry step: 998
Geometry step: 999
Geometry step: 1000
